<?xml version="1.0" encoding="UTF-8" standalone="no"?>
<!-- Created with Inkscape (http://www.inkscape.org/) -->

<svg
   xmlns:dc="http://purl.org/dc/elements/1.1/"
   xmlns:cc="http://creativecommons.org/ns#"
   xmlns:rdf="http://www.w3.org/1999/02/22-rdf-syntax-ns#"
   xmlns:svg="http://www.w3.org/2000/svg"
   xmlns="http://www.w3.org/2000/svg"
   xmlns:sodipodi="http://sodipodi.sourceforge.net/DTD/sodipodi-0.dtd"
   xmlns:inkscape="http://www.inkscape.org/namespaces/inkscape"
   width="400"
   height="400"
   viewBox="0 0 105.83333 105.83334"
   version="1.1"
   id="svg1219"
   inkscape:version="0.92.2 (unknown)"
   sodipodi:docname="arch-5.svg">
  <defs
     id="defs1213" />
  <sodipodi:namedview
     id="base"
     pagecolor="#ffffff"
     bordercolor="#666666"
     borderopacity="1.0"
     inkscape:pageopacity="0.0"
     inkscape:pageshadow="2"
     inkscape:zoom="0.24748737"
     inkscape:cx="-189.67037"
     inkscape:cy="0.82415814"
     inkscape:document-units="px"
     inkscape:current-layer="layer1"
     showgrid="false"
     inkscape:window-width="1366"
     inkscape:window-height="711"
     inkscape:window-x="0"
     inkscape:window-y="28"
     inkscape:window-maximized="1"
     units="px" />
  <metadata
     id="metadata1216">
    <rdf:RDF>
      <cc:Work
         rdf:about="">
        <dc:format>image/svg+xml</dc:format>
        <dc:type
           rdf:resource="http://purl.org/dc/dcmitype/StillImage" />
        <dc:title></dc:title>
      </cc:Work>
    </rdf:RDF>
  </metadata>
  <g
     inkscape:label="Layer 1"
     inkscape:groupmode="layer"
     id="layer1"
     transform="translate(0,-191.16665)">
    <g
       transform="matrix(0.66745087,0,0,0.66745087,-10.283619,-253.98189)"
       id="g2156">
      <circle
         r="77.299698"
         cy="746.79169"
         cx="95.25"
         id="circle2116"
         style="opacity:1;fill:#f2f2f2;fill-opacity:1;stroke:none;stroke-width:6.35201836;stroke-linecap:round;stroke-linejoin:round;stroke-miterlimit:4;stroke-dasharray:none;stroke-dashoffset:8.40000057;stroke-opacity:1;paint-order:markers fill stroke"
         inkscape:export-filename="/home/dzenvikas/Dropbox/projectFabgrad/resources/img/arch-6.png"
         inkscape:export-xdpi="164.3"
         inkscape:export-ydpi="164.3" />
      <g
         id="g2154"
         transform="matrix(0.99999857,0,0,0.99999857,-1.3756357,-0.25581914)">
        <g
           style="stroke-width:1.28153193"
           transform="matrix(0.6393594,-0.44733965,0.44733965,0.6393594,-395.8915,242.32207)"
           id="g2134">
          <path
             style="fill:none;stroke:#4d4d4d;stroke-width:1.69535995;stroke-linecap:round;stroke-linejoin:round;stroke-miterlimit:4;stroke-dasharray:none;stroke-opacity:1"
             d="m 105.83333,865.85416 v 39.6875 H 142.875 v -58.20833 h -37.04167 v 11.90625"
             id="path2118"
             inkscape:connector-curvature="0"
             sodipodi:nodetypes="ccccc" />
          <path
             style="fill:none;stroke:#4d4d4d;stroke-width:1.69535995;stroke-linecap:round;stroke-linejoin:round;stroke-miterlimit:4;stroke-dasharray:none;stroke-opacity:1"
             d="m 138.90625,851.30208 h -29.10417 v 10.58333 h 29.10417 v -7.9375"
             id="path2120"
             inkscape:connector-curvature="0" />
          <path
             style="opacity:0.95999995;fill:none;fill-opacity:1;stroke:#ff9e00;stroke-width:1.69535995;stroke-linecap:butt;stroke-linejoin:round;stroke-miterlimit:4;stroke-dasharray:none;stroke-opacity:1"
             d="m 109.80208,867.17708 h 6.61459 v 5.29166 h -6.61459 z"
             id="path2122"
             inkscape:connector-curvature="0" />
          <path
             inkscape:connector-curvature="0"
             id="path2124"
             d="M 120.38541,867.17708 H 127 v 5.29166 h -6.61459 z"
             style="fill:#ffffff;stroke:#4d4d4d;stroke-width:1.69535995;stroke-linecap:butt;stroke-linejoin:round;stroke-miterlimit:4;stroke-dasharray:none;stroke-opacity:1" />
          <path
             style="fill:none;stroke:#4d4d4d;stroke-width:1.69535995;stroke-linecap:round;stroke-linejoin:round;stroke-miterlimit:4;stroke-dasharray:none;stroke-opacity:1"
             d="m 130.96874,867.17708 h 6.61459 v 5.29166 h -6.61459 z"
             id="path2126"
             inkscape:connector-curvature="0" />
          <path
             inkscape:connector-curvature="0"
             id="path2128"
             d="M 109.80208,896.28125 H 127 v 5.29166 h -17.19792 z"
             style="fill:none;stroke:#4d4d4d;stroke-width:1.69535995;stroke-linecap:round;stroke-linejoin:round;stroke-miterlimit:4;stroke-dasharray:none;stroke-opacity:1" />
          <path
             inkscape:connector-curvature="0"
             id="path2130"
             d="m 130.96874,896.28125 h 6.61459 v 5.29166 h -6.61459 z"
             style="fill:none;stroke:#000000;stroke-width:1.69535995;stroke-linecap:round;stroke-linejoin:round;stroke-miterlimit:4;stroke-dasharray:none;stroke-opacity:1" />
          <path
             style="fill:#ffffff;stroke:#4d4d4d;stroke-width:1.69535995;stroke-linecap:round;stroke-linejoin:round;stroke-miterlimit:4;stroke-dasharray:none;stroke-opacity:1"
             d="m 137.58333,877.76041 h -27.78125 v 14.55208 h 27.78125"
             id="path2132"
             inkscape:connector-curvature="0" />
        </g>
        <path
           inkscape:connector-curvature="0"
           id="path2136"
           d="m 79.374996,709.75 h 50.270834 v 74.08333 H 79.374996 Z"
           style="fill:#ffffff;stroke:#4d4d4d;stroke-width:1.32291663;stroke-linecap:round;stroke-linejoin:round;stroke-miterlimit:4;stroke-dasharray:none;stroke-opacity:1" />
        <g
           transform="translate(15.874997)"
           id="g2144">
          <path
             style="fill:#e6e6e6;stroke:#4d4d4d;stroke-width:1.32291663;stroke-linecap:round;stroke-linejoin:round;stroke-miterlimit:4;stroke-dasharray:none;stroke-opacity:1"
             d="m 88.742556,784.34729 -5.318859,-6.74558 35.414283,-27.92399 7.71861,-0.61635 -2.39975,7.36193 z"
             id="path2138"
             inkscape:connector-curvature="0" />
          <path
             style="fill:none;stroke:#ff9e00;stroke-width:1.32291663;stroke-linecap:butt;stroke-linejoin:round;stroke-miterlimit:4;stroke-dasharray:none;stroke-opacity:1"
             d="m 91.720807,781.18752 -3.594605,-4.55881"
             id="path2140"
             inkscape:connector-curvature="0" />
          <path
             style="fill:none;stroke:#4d4d4d;stroke-width:1.32291663;stroke-linecap:round;stroke-linejoin:round;stroke-miterlimit:4;stroke-dasharray:none;stroke-opacity:1"
             d="m 121.49741,753.05051 -1.32972,-1.6864 -28.668707,22.60515"
             id="path2142"
             inkscape:connector-curvature="0" />
        </g>
        <path
           inkscape:connector-curvature="0"
           id="path2146"
           d="M 87.312499,722.97916 H 120.38542"
           style="fill:none;stroke:#4d4d4d;stroke-width:1.32291663;stroke-linecap:round;stroke-linejoin:miter;stroke-miterlimit:4;stroke-dasharray:none;stroke-opacity:1" />
        <path
           inkscape:connector-curvature="0"
           id="path2148"
           d="M 87.312499,732.23958 H 108.47917"
           style="fill:none;stroke:#4d4d4d;stroke-width:1.32291663;stroke-linecap:round;stroke-linejoin:round;stroke-miterlimit:4;stroke-dasharray:none;stroke-opacity:1" />
        <path
           inkscape:connector-curvature="0"
           id="path2150"
           d="M 87.312499,738.85416 H 120.38542"
           style="fill:none;stroke:#4d4d4d;stroke-width:1.32291663;stroke-linecap:round;stroke-linejoin:miter;stroke-miterlimit:4;stroke-dasharray:none;stroke-opacity:1" />
        <path
           inkscape:connector-curvature="0"
           id="path2152"
           d="m 87.312499,748.11458 h 10.583333 v 9.26041 H 87.312499 Z"
           style="fill:#ff9e00;fill-opacity:1;stroke:#ff9e00;stroke-width:1.32291663;stroke-linecap:butt;stroke-linejoin:round;stroke-miterlimit:4;stroke-dasharray:none;stroke-opacity:1" />
      </g>
    </g>
    <g
       transform="translate(-190.96928,-469.43334)"
       id="g2268">
      <circle
         style="opacity:1;fill:#f2f2f2;fill-opacity:1;stroke:none;stroke-width:6.35201836;stroke-linecap:round;stroke-linejoin:round;stroke-miterlimit:4;stroke-dasharray:none;stroke-dashoffset:8.40000057;stroke-opacity:1;paint-order:markers fill stroke"
         id="circle2224"
         cx="-105.83335"
         cy="746.79169"
         r="77.299698"
         inkscape:export-filename="/home/dzenvikas/Dropbox/projectFabgrad/resources/img/arch-7.png"
         inkscape:export-xdpi="164.3"
         inkscape:export-ydpi="164.3" />
      <rect
         style="opacity:1;fill:none;fill-opacity:1;stroke:none;stroke-width:1.98437488;stroke-linecap:round;stroke-linejoin:round;stroke-miterlimit:4;stroke-dasharray:none;stroke-dashoffset:8.40000057;stroke-opacity:1;paint-order:markers fill stroke"
         id="rect2226"
         width="158.75"
         height="158.75"
         x="-185.19328"
         y="664.35803"
         inkscape:export-filename="/home/dzenvikas/Dropbox/projectFabgrad/resources/img/menu2.png"
         inkscape:export-xdpi="96"
         inkscape:export-ydpi="96" />
      <g
         style="stroke-width:1.19115329"
         id="g2232"
         transform="matrix(0.83954773,0,0,0.83949724,-16.333927,117.59389)">
        <path
           style="fill:none;stroke:#4d4d4d;stroke-width:1.5757966;stroke-linecap:round;stroke-linejoin:round;stroke-miterlimit:4;stroke-dasharray:none;stroke-opacity:1"
           d="m -145.52083,785.18428 c 18.52083,18.52083 51.610573,24.48237 79.374998,0"
           id="path2228"
           inkscape:connector-curvature="0"
           sodipodi:nodetypes="cc" />
        <path
           inkscape:connector-curvature="0"
           id="path2230"
           d="m -74.564824,784.91548 8.418984,2e-5 1.3e-5,8.41898"
           style="fill:none;stroke:#4d4d4d;stroke-width:1.57579648;stroke-linecap:round;stroke-linejoin:round;stroke-miterlimit:4;stroke-dasharray:none;stroke-opacity:1" />
      </g>
      <g
         style="stroke-width:1.19115329"
         id="g2238"
         transform="matrix(0.83954773,0,0,0.83949724,-16.333927,123.21745)">
        <path
           sodipodi:nodetypes="cc"
           inkscape:connector-curvature="0"
           id="path2234"
           d="m -145.52083,707.10416 c 18.52083,-18.52083 51.610573,-24.48237 79.374998,0"
           style="fill:none;stroke:#ff9e00;stroke-width:1.57579648;stroke-linecap:round;stroke-linejoin:round;stroke-miterlimit:4;stroke-dasharray:none;stroke-opacity:1" />
        <path
           style="fill:none;stroke:#ff9e00;stroke-width:1.57579648;stroke-linecap:round;stroke-linejoin:round;stroke-miterlimit:4;stroke-dasharray:none;stroke-opacity:1"
           d="m -137.10185,707.10418 -8.41898,-2e-5 -1e-5,-8.41898"
           id="path2236"
           inkscape:connector-curvature="0" />
      </g>
      <g
         style="stroke-width:1.19115329"
         id="g2244"
         transform="matrix(0.83954773,0,0,0.83949724,-17.177511,120.12449)">
        <circle
           r="14.978914"
           cy="725.86163"
           cx="-114.02187"
           id="circle2240"
           style="opacity:1;fill:#ff9e00;fill-opacity:1;stroke:#ff9e00;stroke-width:1.8545357;stroke-linecap:round;stroke-linejoin:round;stroke-miterlimit:4;stroke-dasharray:none;stroke-dashoffset:8.40000057;stroke-opacity:1;paint-order:markers fill stroke" />
        <path
           inkscape:connector-curvature="0"
           id="path2242"
           d="m -130.07663,740.0329 4.14462,-3.55254 4.61829,2.60519 z"
           style="fill:#ff9e00;fill-opacity:1;stroke:none;stroke-width:1.57579648;stroke-linecap:round;stroke-linejoin:round;stroke-miterlimit:4;stroke-dasharray:none;stroke-opacity:1" />
      </g>
      <g
         style="stroke-width:1.19115329"
         id="g2250"
         transform="matrix(0.83954773,0,0,0.83949724,-16.052732,118.71861)">
        <circle
           style="opacity:1;fill:#ffffff;fill-opacity:1;stroke:#4d4d4d;stroke-width:1.8545357;stroke-linecap:round;stroke-linejoin:round;stroke-miterlimit:4;stroke-dasharray:none;stroke-dashoffset:8.40000057;stroke-opacity:1;paint-order:markers fill stroke"
           id="circle2246"
           cx="-99.338074"
           cy="734.3877"
           r="14.978914" />
        <path
           style="fill:#4d4d4d;fill-opacity:1;stroke:none;stroke-width:1.57579648;stroke-linecap:round;stroke-linejoin:round;stroke-miterlimit:4;stroke-dasharray:none;stroke-opacity:1"
           d="m -83.216464,748.16903 -4.144618,-3.55254 -4.618293,2.60519 z"
           id="path2248"
           inkscape:connector-curvature="0" />
      </g>
      <g
         id="g2258">
        <path
           sodipodi:nodetypes="cccc"
           inkscape:connector-curvature="0"
           id="path2252"
           d="m -78.259517,748.36032 c -7.719708,8.04182 -7.486955,14.0595 -7.95835,20.2564 l 26.190206,-0.0362 c -0.52658,-7.0972 -1.710745,-13.85937 -7.898415,-20.14789"
           style="fill:#ffffff;stroke:#ff9e00;stroke-width:1.32291663;stroke-linecap:round;stroke-linejoin:round;stroke-miterlimit:4;stroke-dasharray:none;stroke-opacity:1" />
        <circle
           r="8.49259"
           cy="740.6861"
           cx="-73.122765"
           id="circle2254"
           style="opacity:1;fill:#ffffff;fill-opacity:1;stroke:#fea109;stroke-width:1.0160116;stroke-linecap:round;stroke-linejoin:round;stroke-miterlimit:4;stroke-dasharray:none;stroke-dashoffset:0;stroke-opacity:1;paint-order:markers fill stroke" />
        <path
           sodipodi:nodetypes="cc"
           inkscape:connector-curvature="0"
           id="path2256"
           d="m -76.216037,744.74437 c 2.188842,1.9362 4.1784,1.52386 6.073651,0"
           style="fill:none;stroke:#4d4d4d;stroke-width:1.32291663;stroke-linecap:round;stroke-linejoin:round;stroke-miterlimit:4;stroke-dasharray:none;stroke-opacity:1" />
      </g>
      <g
         id="g2266"
         transform="translate(-65.421175)">
        <path
           style="fill:#ffffff;stroke:#4d4d4d;stroke-width:1.32291663;stroke-linecap:round;stroke-linejoin:round;stroke-miterlimit:4;stroke-dasharray:none;stroke-opacity:1"
           d="m -78.259517,748.36032 c -7.719708,8.04182 -7.486955,14.0595 -7.95835,20.2564 l 26.190206,-0.0362 c -0.52658,-7.0972 -1.710745,-13.85937 -7.898415,-20.14789"
           id="path2260"
           inkscape:connector-curvature="0"
           sodipodi:nodetypes="cccc" />
        <circle
           style="opacity:1;fill:#ffffff;fill-opacity:1;stroke:#4d4d4d;stroke-width:1.0160116;stroke-linecap:round;stroke-linejoin:round;stroke-miterlimit:4;stroke-dasharray:none;stroke-dashoffset:0;stroke-opacity:1;paint-order:markers fill stroke"
           id="circle2262"
           cx="-73.122765"
           cy="740.6861"
           r="8.49259" />
        <path
           style="fill:none;stroke:#ff9e00;stroke-width:1.32291663;stroke-linecap:round;stroke-linejoin:round;stroke-miterlimit:4;stroke-dasharray:none;stroke-opacity:1"
           d="m -76.216037,744.74437 c 2.188842,1.9362 4.1784,1.52386 6.073651,0"
           id="path2264"
           inkscape:connector-curvature="0"
           sodipodi:nodetypes="cc" />
      </g>
    </g>
  </g>
</svg>
